[ {
  "name" : "admin",
  "description" : null,
  "roleConfig" : {
    "landingPage" : "Main"
  }
}, {
  "name" : "user",
  "description" : null,
  "roleConfig" : {
    "landingPage" : "Main"
  }
}, {
  "name" : "Admin",
  "description" : null,
  "roleConfig" : {
    "landingPage" : "Main"
  }
} ]